%YAML 1.1
%TAG !u! tag:unity3d.com,2011:
--- !u!1045 &1
EditorBuildSettings:
  m_ObjectHideFlags: 0
  serializedVersion: 2
  m_Scenes:
  - enabled: 1
    path: Assets/MooseStache/Demo/Z.unity
    guid: 957b316a36b979444b5ca6ed8fb9b8b2
  - enabled: 1
    path: Assets/MooseStache/Demo/G.unity
    guid: d49d44433a8eba94db8fce237d10a506
  m_configObjects: {}
