%YAML 1.1
%TAG !u! tag:unity3d.com,2011:
--- !u!1 &4992626964906571083
GameObject:
  m_ObjectHideFlags: 0
  m_CorrespondingSourceObject: {fileID: 0}
  m_PrefabInstance: {fileID: 0}
  m_PrefabAsset: {fileID: 0}
  serializedVersion: 6
  m_Component:
  - component: {fileID: 4992626964906571082}
  - component: {fileID: 4992626964906571085}
  m_Layer: 0
  m_Name: GameManager
  m_TagString: Untagged
  m_Icon: {fileID: 0}
  m_NavMeshLayer: 0
  m_StaticEditorFlags: 0
  m_IsActive: 1
--- !u!4 &4992626964906571082
Transform:
  m_ObjectHideFlags: 0
  m_CorrespondingSourceObject: {fileID: 0}
  m_PrefabInstance: {fileID: 0}
  m_PrefabAsset: {fileID: 0}
  m_GameObject: {fileID: 4992626964906571083}
  m_LocalRotation: {x: 0, y: 0, z: 0, w: 1}
  m_LocalPosition: {x: 0, y: 0, z: 0}
  m_LocalScale: {x: 1, y: 1, z: 1}
  m_Children: []
  m_Father: {fileID: 0}
  m_RootOrder: 0
  m_LocalEulerAnglesHint: {x: 0, y: 0, z: 0}
--- !u!114 &4992626964906571085
MonoBehaviour:
  m_ObjectHideFlags: 0
  m_CorrespondingSourceObject: {fileID: 0}
  m_PrefabInstance: {fileID: 0}
  m_PrefabAsset: {fileID: 0}
  m_GameObject: {fileID: 4992626964906571083}
  m_Enabled: 1
  m_EditorHideFlags: 0
  m_Script: {fileID: 11500000, guid: 125c31175c047c34abecbb1dd9ba8be8, type: 3}
  m_Name: 
  m_EditorClassIdentifier: 
  YellowPot: {fileID: 1884471767846222, guid: 72893889eab4ec446b48f77cb6e055f5, type: 3}
  PurplePot: {fileID: 1884471767846222, guid: d25d8a848066fd4439aa9f7bdb1f141b, type: 3}
  RedPot: {fileID: 1884471767846222, guid: 08530e980059863448a83fd5e1ef477e, type: 3}
  FX_YellowPot: {fileID: 1627291491608086, guid: f4208c54abcb5224aa956e97b8caf546,
    type: 3}
  FX_RedPot: {fileID: 1627291491608086, guid: b23eb6fba61623e4babb4594e00d852f, type: 3}
  FX_PuprlePot: {fileID: 1627291491608086, guid: 2d02f3d9b6547694b9761ea8dcdda874,
    type: 3}
  TileSize: {x: 16, y: 16}
  LevelSpawnPoint: {fileID: 0}
  OnPlayerDeadEvents:
    m_PersistentCalls:
      m_Calls:
      - m_Target: {fileID: 0}
        m_MethodName: FadeIn
        m_Mode: 1
        m_Arguments:
          m_ObjectArgument: {fileID: 0}
          m_ObjectArgumentAssemblyTypeName: UnityEngine.Object, UnityEngine
          m_IntArgument: 0
          m_FloatArgument: 0
          m_StringArgument: 
          m_BoolArgument: 0
        m_CallState: 2
      - m_Target: {fileID: 0}
        m_MethodName: Shake
        m_Mode: 4
        m_Arguments:
          m_ObjectArgument: {fileID: 0}
          m_ObjectArgumentAssemblyTypeName: UnityEngine.Object, UnityEngine
          m_IntArgument: 0
          m_FloatArgument: 0.2
          m_StringArgument: 
          m_BoolArgument: 0
        m_CallState: 2
  OnPlayerRespawnEvents:
    m_PersistentCalls:
      m_Calls:
      - m_Target: {fileID: 4992626964906571085}
        m_MethodName: ResetFallingPlatforms
        m_Mode: 1
        m_Arguments:
          m_ObjectArgument: {fileID: 0}
          m_ObjectArgumentAssemblyTypeName: UnityEngine.Object, UnityEngine
          m_IntArgument: 0
          m_FloatArgument: 0
          m_StringArgument: 
          m_BoolArgument: 0
        m_CallState: 2
      - m_Target: {fileID: 0}
        m_MethodName: FadeOut
        m_Mode: 1
        m_Arguments:
          m_ObjectArgument: {fileID: 0}
          m_ObjectArgumentAssemblyTypeName: UnityEngine.Object, UnityEngine
          m_IntArgument: 0
          m_FloatArgument: 0
          m_StringArgument: 
          m_BoolArgument: 0
        m_CallState: 2
  NextLevelEvents:
    m_PersistentCalls:
      m_Calls: []
